{ "height":9,
 "layers":[
        {
         "data":[2, 0, 0, 0, 0, 0, 0, 0, 0, 0, 0, 0, 0, 0, 0, 0, 0, 0, 0, 0, 0, 0, 0, 0, 0, 0, 0, 0, 0, 0, 0, 0, 0, 0, 0, 0, 0, 0, 0, 0, 0, 0, 0, 0, 0, 0, 0, 0, 0, 0, 0, 0, 0, 0, 0, 0, 0, 0, 0, 0, 0, 0, 0, 0, 0, 0, 0, 0, 0, 0, 0, 0, 0, 0, 0, 0, 0, 0, 0, 0, 0, 0, 0, 0, 0, 0, 0, 0, 0, 0, 0, 0, 0, 0, 0, 0, 0, 0, 0, 0, 0, 0, 0, 0, 0, 0, 0, 0, 0, 0, 0, 0, 0, 0, 0, 0, 0, 0, 0, 0, 0, 0, 0, 0, 0, 0, 0, 0, 0, 0, 0, 0, 0, 0, 0, 0, 0, 0, 0, 0, 0, 0, 0, 0],
         "height":9,
         "name":"background",
         "opacity":1,
         "type":"tilelayer",
         "visible":true,
         "width":16,
         "x":0,
         "y":0
        }, 
        {
         "data":[1, 1, 1, 1, 1, 1, 1, 1, 1, 1, 1, 1, 1, 1, 1, 1, 1, 0, 0, 0, 0, 0, 0, 0, 0, 0, 0, 0, 0, 0, 0, 1, 1, 0, 0, 0, 0, 0, 0, 0, 0, 0, 0, 0, 0, 0, 0, 1, 1, 0, 0, 0, 0, 0, 0, 0, 0, 0, 0, 0, 0, 0, 0, 1, 1, 0, 0, 0, 0, 0, 0, 0, 0, 0, 0, 0, 0, 0, 0, 1, 1, 0, 0, 0, 0, 0, 0, 0, 0, 0, 0, 0, 0, 0, 0, 1, 1, 0, 0, 0, 0, 0, 0, 0, 0, 0, 0, 0, 0, 0, 0, 1, 1, 0, 0, 0, 0, 0, 0, 0, 0, 0, 0, 0, 0, 0, 0, 1, 1, 1, 1, 1, 1, 1, 1, 1, 1, 1, 1, 1, 1, 1, 1, 1],
         "height":9,
         "name":"static_layer",
         "opacity":1,
         "type":"tilelayer",
         "visible":true,
         "width":16,
         "x":0,
         "y":0
        }, 
        {
         "draworder":"topdown",
         "height":0,
         "name":"ball",
         "objects":[
                {
                 "gid":3,
                 "height":32,
                 "id":27,
                 "name":"",
                 "rotation":0,
                 "type":"",
                 "visible":true,
                 "width":32,
                 "x":138,
                 "y":171
                }],
         "opacity":1,
         "type":"objectgroup",
         "visible":true,
         "width":0,
         "x":0,
         "y":0
        }, 
        {
         "draworder":"topdown",
         "height":0,
         "name":"water",
         "objects":[
                {
                 "gid":8,
                 "height":80,
                 "id":25,
                 "name":"",
                 "rotation":0,
                 "type":"",
                 "visible":true,
                 "width":80,
                 "x":80,
                 "y":640
                }, 
                {
                 "gid":8,
                 "height":80,
                 "id":49,
                 "name":"",
                 "rotation":0,
                 "type":"",
                 "visible":true,
                 "width":80,
                 "x":640,
                 "y":160
                }, 
                {
                 "gid":8,
                 "height":80,
                 "id":51,
                 "name":"",
                 "rotation":0,
                 "type":"",
                 "visible":true,
                 "width":80,
                 "x":880,
                 "y":640
                }, 
                {
                 "gid":8,
                 "height":80,
                 "id":50,
                 "name":"",
                 "rotation":0,
                 "type":"",
                 "visible":true,
                 "width":80,
                 "x":1120,
                 "y":160
                }],
         "opacity":1,
         "type":"objectgroup",
         "visible":true,
         "width":0,
         "x":0,
         "y":0
        }, 
        {
         "draworder":"topdown",
         "height":0,
         "name":"coins",
         "objects":[
                {
                 "gid":10,
                 "height":40,
                 "id":12,
                 "name":"",
                 "rotation":0,
                 "type":"",
                 "visible":true,
                 "width":40,
                 "x":321.212121212121,
                 "y":572.121212121212
                }, 
                {
                 "gid":10,
                 "height":40,
                 "id":13,
                 "name":"",
                 "rotation":0,
                 "type":"",
                 "visible":true,
                 "width":40,
                 "x":1077.0303030303,
                 "y":512.30303030303
                }, 
                {
                 "gid":10,
                 "height":40,
                 "id":14,
                 "name":"",
                 "rotation":0,
                 "type":"",
                 "visible":true,
                 "width":40,
                 "x":620.969696969697,
                 "y":507.878787878788
                }, 
                {
                 "gid":10,
                 "height":40,
                 "id":15,
                 "name":"",
                 "rotation":0,
                 "type":"",
                 "visible":true,
                 "width":40,
                 "x":1134,
                 "y":392
                }, 
                {
                 "gid":10,
                 "height":40,
                 "id":16,
                 "name":"",
                 "rotation":0,
                 "type":"",
                 "visible":true,
                 "width":40,
                 "x":862,
                 "y":257
                }, 
                {
                 "gid":10,
                 "height":40,
                 "id":17,
                 "name":"",
                 "rotation":0,
                 "type":"",
                 "visible":true,
                 "width":40,
                 "x":353.545454545455,
                 "y":137.939393939394
                }, 
                {
                 "gid":10,
                 "height":40,
                 "id":18,
                 "name":"",
                 "rotation":0,
                 "type":"",
                 "visible":true,
                 "width":40,
                 "x":186,
                 "y":383
                }, 
                {
                 "gid":10,
                 "height":40,
                 "id":52,
                 "name":"",
                 "rotation":0,
                 "type":"",
                 "visible":true,
                 "width":40,
                 "x":1015.81818181818,
                 "y":182.909090909091
                }, 
                {
                 "gid":10,
                 "height":40,
                 "id":56,
                 "name":"",
                 "rotation":0,
                 "type":"",
                 "visible":true,
                 "width":40,
                 "x":617.939696969697,
                 "y":323.030515151515
                }, 
                {
                 "gid":10,
                 "height":40,
                 "id":53,
                 "name":"",
                 "rotation":0,
                 "type":"",
                 "visible":true,
                 "width":40,
                 "x":744.909090909091,
                 "y":586.545454545455
                }],
         "opacity":1,
         "type":"objectgroup",
         "visible":true,
         "width":0,
         "x":0,
         "y":0
        }, 
        {
         "draworder":"topdown",
         "height":0,
         "name":"exit",
         "objects":[
                {
                 "gid":6,
                 "height":80,
                 "id":21,
                 "name":"",
                 "rotation":0,
                 "type":"",
                 "visible":true,
                 "width":80,
                 "x":1120,
                 "y":640
                }, 
                {
                 "gid":6,
                 "height":80,
                 "id":55,
                 "name":"",
                 "rotation":0,
                 "type":"",
                 "visible":true,
                 "width":80,
                 "x":1040,
                 "y":640
                }],
         "opacity":1,
         "type":"objectgroup",
         "visible":true,
         "width":0,
         "x":0,
         "y":0
        }, 
        {
         "draworder":"topdown",
         "height":9,
         "name":"fire",
         "objects":[
                {
                 "gid":13,
                 "height":80,
                 "id":28,
                 "name":"",
                 "rotation":0,
                 "type":"",
                 "visible":true,
                 "width":80,
                 "x":240,
                 "y":160
                }, 
                {
                 "gid":13,
                 "height":80,
                 "id":29,
                 "name":"",
                 "rotation":0,
                 "type":"",
                 "visible":true,
                 "width":80,
                 "x":480,
                 "y":480
                }, 
                {
                 "gid":13,
                 "height":80,
                 "id":30,
                 "name":"",
                 "rotation":0,
                 "type":"",
                 "visible":true,
                 "width":80,
                 "x":720,
                 "y":240
                }, 
                {
                 "gid":13,
                 "height":80,
                 "id":31,
                 "name":"",
                 "rotation":0,
                 "type":"",
                 "visible":true,
                 "width":80,
                 "x":960,
                 "y":320
                }, 
                {
                 "gid":13,
                 "height":80,
                 "id":32,
                 "name":"",
                 "rotation":0,
                 "type":"",
                 "visible":true,
                 "width":80,
                 "x":960,
                 "y":400
                }, 
                {
                 "gid":13,
                 "height":80,
                 "id":33,
                 "name":"",
                 "rotation":0,
                 "type":"",
                 "visible":true,
                 "width":80,
                 "x":960,
                 "y":560
                }, 
                {
                 "gid":13,
                 "height":80,
                 "id":34,
                 "name":"",
                 "rotation":0,
                 "type":"",
                 "visible":true,
                 "width":80,
                 "x":960,
                 "y":480
                }, 
                {
                 "gid":13,
                 "height":80,
                 "id":35,
                 "name":"",
                 "rotation":0,
                 "type":"",
                 "visible":true,
                 "width":80,
                 "x":960,
                 "y":640
                }, 
                {
                 "gid":13,
                 "height":80,
                 "id":36,
                 "name":"",
                 "rotation":0,
                 "type":"",
                 "visible":true,
                 "width":80,
                 "x":720,
                 "y":160
                }, 
                {
                 "gid":13,
                 "height":80,
                 "id":37,
                 "name":"",
                 "rotation":0,
                 "type":"",
                 "visible":true,
                 "width":80,
                 "x":720,
                 "y":320
                }, 
                {
                 "gid":13,
                 "height":80,
                 "id":38,
                 "name":"",
                 "rotation":0,
                 "type":"",
                 "visible":true,
                 "width":80,
                 "x":720,
                 "y":400
                }, 
                {
                 "gid":13,
                 "height":80,
                 "id":39,
                 "name":"",
                 "rotation":0,
                 "type":"",
                 "visible":true,
                 "width":80,
                 "x":720,
                 "y":480
                }, 
                {
                 "gid":13,
                 "height":80,
                 "id":40,
                 "name":"",
                 "rotation":0,
                 "type":"",
                 "visible":true,
                 "width":80,
                 "x":480,
                 "y":320
                }, 
                {
                 "gid":13,
                 "height":80,
                 "id":41,
                 "name":"",
                 "rotation":0,
                 "type":"",
                 "visible":true,
                 "width":80,
                 "x":480,
                 "y":400
                }, 
                {
                 "gid":13,
                 "height":80,
                 "id":42,
                 "name":"",
                 "rotation":0,
                 "type":"",
                 "visible":true,
                 "width":80,
                 "x":480,
                 "y":560
                }, 
                {
                 "gid":13,
                 "height":80,
                 "id":43,
                 "name":"",
                 "rotation":0,
                 "type":"",
                 "visible":true,
                 "width":80,
                 "x":480,
                 "y":640
                }, 
                {
                 "gid":13,
                 "height":80,
                 "id":45,
                 "name":"",
                 "rotation":0,
                 "type":"",
                 "visible":true,
                 "width":80,
                 "x":240,
                 "y":480
                }, 
                {
                 "gid":13,
                 "height":80,
                 "id":46,
                 "name":"",
                 "rotation":0,
                 "type":"",
                 "visible":true,
                 "width":80,
                 "x":240,
                 "y":400
                }, 
                {
                 "gid":13,
                 "height":80,
                 "id":47,
                 "name":"",
                 "rotation":0,
                 "type":"",
                 "visible":true,
                 "width":80,
                 "x":240,
                 "y":320
                }, 
                {
                 "gid":13,
                 "height":80,
                 "id":48,
                 "name":"",
                 "rotation":0,
                 "type":"",
                 "visible":true,
                 "width":80,
                 "x":240,
                 "y":240
                }],
         "opacity":1,
         "type":"objectgroup",
         "visible":true,
         "width":16,
         "x":0,
         "y":0
        }],
 "nextobjectid":57,
 "orientation":"orthogonal",
 "renderorder":"right-down",
 "tileheight":80,
 "tilesets":[
        {
         "columns":1,
         "firstgid":1,
         "image":"..\/gfx\/play\/wall_default.png",
         "imageheight":80,
         "imagewidth":80,
         "margin":0,
         "name":"wall_default",
         "spacing":0,
         "tilecount":1,
         "tileheight":80,
         "tilewidth":80
        }, 
        {
         "columns":1,
         "firstgid":2,
         "image":"..\/gfx\/play\/bg2.jpg",
         "imageheight":720,
         "imagewidth":1280,
         "margin":0,
         "name":"bg",
         "spacing":0,
         "tilecount":1,
         "tileheight":720,
         "tileoffset":
            {
             "x":0,
             "y":640
            },
         "tilewidth":1280
        }, 
        {
         "columns":1,
         "firstgid":3,
         "image":"..\/gfx\/play\/ball.png",
         "imageheight":32,
         "imagewidth":32,
         "margin":0,
         "name":"ball",
         "spacing":0,
         "tilecount":1,
         "tileheight":32,
         "tilewidth":32
        }, 
        {
         "columns":1,
         "firstgid":4,
         "image":"..\/gfx\/play\/sw_red_up.png",
         "imageheight":52,
         "imagewidth":80,
         "margin":0,
         "name":"sw_red_up",
         "spacing":0,
         "tilecount":1,
         "tileheight":52,
         "tilewidth":80
        }, 
        {
         "columns":1,
         "firstgid":5,
         "image":"..\/gfx\/play\/wall_red.png",
         "imageheight":80,
         "imagewidth":80,
         "margin":0,
         "name":"wall_red",
         "spacing":0,
         "tilecount":1,
         "tileheight":80,
         "tilewidth":80
        }, 
        {
         "columns":2,
         "firstgid":6,
         "image":"..\/gfx\/play\/exit.png",
         "imageheight":80,
         "imagewidth":160,
         "margin":0,
         "name":"exit",
         "spacing":0,
         "tilecount":2,
         "tileheight":80,
         "tilewidth":80
        }, 
        {
         "columns":2,
         "firstgid":8,
         "image":"..\/gfx\/play\/water.png",
         "imageheight":80,
         "imagewidth":160,
         "margin":0,
         "name":"water",
         "spacing":0,
         "tilecount":2,
         "tileheight":80,
         "tilewidth":80
        }, 
        {
         "columns":1,
         "firstgid":10,
         "image":"..\/gfx\/play\/coin.png",
         "imageheight":40,
         "imagewidth":40,
         "margin":0,
         "name":"coin",
         "spacing":0,
         "tilecount":1,
         "tileheight":40,
         "tilewidth":40
        }, 
        {
         "columns":1,
         "firstgid":11,
         "image":"..\/gfx\/play\/wall_blue.png",
         "imageheight":80,
         "imagewidth":80,
         "margin":0,
         "name":"wall_blue",
         "spacing":0,
         "tilecount":1,
         "tileheight":80,
         "tilewidth":80
        }, 
        {
         "columns":1,
         "firstgid":12,
         "image":"..\/gfx\/play\/sw_blue_up.png",
         "imageheight":52,
         "imagewidth":80,
         "margin":0,
         "name":"sw_blue_up",
         "spacing":0,
         "tilecount":1,
         "tileheight":52,
         "tilewidth":80
        }, 
        {
         "columns":1,
         "firstgid":13,
         "image":"..\/gfx\/play\/fire.png",
         "imageheight":80,
         "imagewidth":80,
         "margin":0,
         "name":"fire",
         "spacing":0,
         "tilecount":1,
         "tileheight":80,
         "tilewidth":80
        }],
 "tilewidth":80,
 "version":1,
 "width":16
}